wYdQOQI439;atAgxLr821;GbDSEUZALdqXqpTk291@mail.ru;ip:178.213.13.136:53281
nWBpn808;JcxUxmF083;GbDSEUZALdqXqpTk291@mail.ru;ip:178.213.13.136:53281
xGYCZK329;pMMItU443;JTngsLTQTSkm411@mail.ru;ip:51.68.172.7:3128
cvbvt733;NOnex339;uyALNfVLIDsSQFIAFOt090@mail.ru;ip:178.128.233.221:80
fnIoDy291;rkzYLTv133;OhyvVDgwBFpxam505@mail.ru;ip:187.110.16.2:3128
cnRWiNwJw938;aKfhKkE269;GbDSEUZALdqXqpTk291@mail.ru;ip:178.213.13.136:53281
JJRCSvoxfVe449;cAwfPwC654;JTngsLTQTSkm411@mail.ru;ip:51.68.172.7:3128
sQlGM265;uBVDUO991;GbDSEUZALdqXqpTk291@mail.ru;ip:178.213.13.136:53281
xkhbwYk635;pOETzq040;GbDSEUZALdqXqpTk291@mail.ru;ip:178.213.13.136:53281
IHQBDUe939;xZrKQ213;GbDSEUZALdqXqpTk291@mail.ru;ip:178.213.13.136:53281
fVoZF438;cEIDPW564;GbDSEUZALdqXqpTk291@mail.ru;ip:178.213.13.136:53281
FSWqb486;GxZAV651;GbDSEUZALdqXqpTk291@mail.ru;ip:178.213.13.136:53281
PtZujL702;LhziMds610;GbDSEUZALdqXqpTk291@mail.ru;ip:178.213.13.136:53281
bknGivnQGe843;qsvATpb964;GbDSEUZALdqXqpTk291@mail.ru;ip:178.213.13.136:53281
iHIePsoQu289;pUigsz725;HyAAeGVVxqtKtEFnyeNPcSAA985@mail.ru;ip:45.89.19.5:12362
LNGobJWzfu651;dmGnN294;XkayryqbywintJZkbI227@mail.ru;ip:45.89.19.32:14484
dzlrpAyObBA844;nvtwW803;rYLKIeKEUWyQ714@mail.ru;ip:45.89.19.38:6696
GSIyrwJksZxw438;FaoFz423;vdwsefLLNZhDlDALUhTBTEG837@mail.ru;ip:45.89.19.36:12662
