EBU8KA:Uj7VxTO0pb@45.89.19.5:12362
EBU8KA:Uj7VxTO0pb@45.89.19.32:14484
EBU8KA:Uj7VxTO0pb@45.89.19.38:6696
EBU8KA:Uj7VxTO0pb@45.89.19.36:12662
EBU8KA:Uj7VxTO0pb@45.89.19.19:12796
EBU8KA:Uj7VxTO0pb@45.89.19.16:10788
EBU8KA:Uj7VxTO0pb@45.89.19.2:9932
EBU8KA:Uj7VxTO0pb@45.89.19.5:10774
EBU8KA:Uj7VxTO0pb@45.89.19.6:16266
EBU8KA:Uj7VxTO0pb@45.89.19.13:19372
EBU8KA:Uj7VxTO0pb@45.89.19.32:14854